Assignment 2
…
The following objects are masked from 'package:stats':

    filter, lag

The following objects are masked from 'package:base':

    intersect, setdiff, setequal, union

Code

# do count by date 
db_tib %>%
  count(Date)

# A tibble: 367 × 2
   Date           n
   <date>     <int>
 1 2022-08-31     1
 2 2022-09-01    24
 3 2022-09-02    24
 4 2022-09-03    24
 5 2022-09-04    24
 6 2022-09-05    24
 7 2022-09-06    24
 8 2022-09-07    24
 9 2022-09-08    24
10 2022-09-09    24
# ℹ 357 more rows
…
Use ggplot2 to create a time series plot of the maximum and minimum daily temperatures. The two time series must be on the same plot.

Code

# Add maximum and minimum temperature columns
temps_df <- db_tib %>%
  group_by(day_of_week) %>%
  mutate(max_temp = max(temp), min_temp = min(temp))

temps_df

# A tibble: 8,727 × 17
# Groups:   day_of_week [7]
   Date       Hour     day_of_week month      rain  temp  wdsp clamt
   <date>     <chr>    <ord>       <ord>     <dbl> <dbl> <dbl> <ord>
 1 2022-08-31 00:00:00 Wednesday   August        0  13       6 6    
 2 2022-09-01 01:00:00 Thursday    September     0  13.6     7 6    
 3 2022-09-01 02:00:00 Thursday    September     0  14       6 6    
 4 2022-09-01 03:00:00 Thursday    September     0  14.4     5 6    
 5 2022-09-01 04:00:00 Thursday    September     0  14.4     5 7    
 6 2022-09-01 05:00:00 Thursday    September     0  13.5     6 7    
 7 2022-09-01 06:00:00 Thursday    September     0  14.2     6 7    
 8 2022-09-01 07:00:00 Thursday    September     0  15       8 7    
 9 2022-09-01 08:00:00 Thursday    September     0  15.5     9 7    
10 2022-09-01 09:00:00 Thursday    September     0  16.4    11 5    
# ℹ 8,717 more rows
# ℹ 9 more variables: `Clontarf - James Larkin Rd` <dbl>,
#   `Clontarf - Pebble Beach Carpark` <dbl>,
#   `Griffith Avenue (Clare Rd Side)` <dbl>,
#   `Griffith Avenue (Lane Side)` <dbl>, `Grove Road Totem` <dbl>,
#   `Richmond Street Cyclists 1` <dbl>, `Richmond Street Cyclists 2` <dbl>,
#   max_temp <dbl>, min_temp <dbl>
…
